Data tidying
…
]

--

.right-column[

```r
relig_income %>%
  gather(income, frequency, -religion)
```

```
## # A tibble: 180 x 3
##    religion                income frequency
##    <chr>                   <chr>      <dbl>
##  1 Agnostic                <$10k         27
##  2 Atheist                 <$10k         12
##  3 Buddhist                <$10k         27
##  4 Catholic                <$10k        418
##  5 Don’t know/refused      <$10k         15
##  6 Evangelical Prot        <$10k        575
##  7 Hindu                   <$10k          1
##  8 Historically Black Prot <$10k        228
##  9 Jehovah's Witness       <$10k         20
## 10 Jewish                  <$10k         19
## # … with 170 more rows
```
…
]

--

.right-column[

```r
relig_income %>% 
  pivot_longer(-religion, names_to = "income", values_to = "frequency")
```

```
## # A tibble: 180 x 3
##    religion income             frequency
##    <chr>    <chr>                  <dbl>
##  1 Agnostic <$10k                     27
##  2 Agnostic $10-20k                   34
##  3 Agnostic $20-30k                   60
##  4 Agnostic $30-40k                   81
##  5 Agnostic $40-50k                   76
##  6 Agnostic $50-75k                  137
##  7 Agnostic $75-100k                 122
##  8 Agnostic $100-150k                109
##  9 Agnostic >150k                     84
## 10 Agnostic Don't know/refused        96
## # … with 170 more rows
```
…
Notice how the column headers are numbers of weeks, one per song for the amounts of weeks that song was on the billboards.

]

--

.right-column[

```r
billboard
```

```
## # A tibble: 317 x 79
##    artist track date.entered   wk1   wk2   wk3   wk4   wk5   wk6   wk7
##    <chr>  <chr> <date>       <dbl> <dbl> <dbl> <dbl> <dbl> <dbl> <dbl>
##  1 2 Pac  Baby… 2000-02-26      87    82    72    77    87    94    99
##  2 2Ge+h… The … 2000-09-02      91    87    92    NA    NA    NA    NA
##  3 3 Doo… Kryp… 2000-04-08      81    70    68    67    66    57    54
##  4 3 Doo… Loser 2000-10-21      76    76    72    69    67    65    55
##  5 504 B… Wobb… 2000-04-15      57    34    25    17    17    31    36
##  6 98^0   Give… 2000-08-19      51    39    34    26    26    19     2
##  7 A*Tee… Danc… 2000-07-08      97    97    96    95   100    NA    NA
##  8 Aaliy… I Do… 2000-01-29      84    62    51    41    38    35    35
##  9 Aaliy… Try … 2000-03-18      59    53    38    28    21    18    16
## 10 Adams… Open… 2000-08-26      76    76    74    69    68    67    61
## # … with 307 more rows, and 69 more variables: wk8 <dbl>, wk9 <dbl>,
## #   wk10 <dbl>, wk11 <dbl>, wk12 <dbl>, wk13 <dbl>, wk14 <dbl>,
## #   wk15 <dbl>, wk16 <dbl>, wk17 <dbl>, wk18 <dbl>, wk19 <dbl>,
## #   wk20 <dbl>, wk21 <dbl>, wk22 <dbl>, wk23 <dbl>, wk24 <dbl>,
## #   wk25 <dbl>, wk26 <dbl>, wk27 <dbl>, wk28 <dbl>, wk29 <dbl>,
## #   wk30 <dbl>, wk31 <dbl>, wk32 <dbl>, wk33 <dbl>, wk34 <dbl>,
## #   wk35 <dbl>, wk36 <dbl>, wk37 <dbl>, wk38 <dbl>, wk39 <dbl>,
## #   wk40 <dbl>, wk41 <dbl>, wk42 <dbl>, wk43 <dbl>, wk44 <dbl>,
## #   wk45 <dbl>, wk46 <dbl>, wk47 <dbl>, wk48 <dbl>, wk49 <dbl>,
…
]

--

.right-column[

```r
billboard %>% 
  gather(week, rank, starts_with("wk"), na.rm = TRUE)
```

```
## # A tibble: 5,307 x 5
##    artist         track                   date.entered week   rank
##    <chr>          <chr>                   <date>       <chr> <dbl>
##  1 2 Pac          Baby Don't Cry (Keep... 2000-02-26   wk1      87
##  2 2Ge+her        The Hardest Part Of ... 2000-09-02   wk1      91
##  3 3 Doors Down   Kryptonite              2000-04-08   wk1      81
##  4 3 Doors Down   Loser                   2000-10-21   wk1      76
##  5 504 Boyz       Wobble Wobble           2000-04-15   wk1      57
##  6 98^0           Give Me Just One Nig... 2000-08-19   wk1      51
##  7 A*Teens        Dancing Queen           2000-07-08   wk1      97
##  8 Aaliyah        I Don't Wanna           2000-01-29   wk1      84
##  9 Aaliyah        Try Again               2000-03-18   wk1      59
## 10 Adams, Yolanda Open My Heart           2000-08-26   wk1      76
## # … with 5,297 more rows
```
…
--

.right-column[

```r
billboard %>% 
  pivot_longer(
    cols = starts_with("wk"), names_to = "week", 
    values_to = "rank", values_drop_na = TRUE
  )
```

```
## # A tibble: 5,307 x 5
##    artist  track                   date.entered week   rank
##    <chr>   <chr>                   <date>       <chr> <dbl>
##  1 2 Pac   Baby Don't Cry (Keep... 2000-02-26   wk1      87
##  2 2 Pac   Baby Don't Cry (Keep... 2000-02-26   wk2      82
##  3 2 Pac   Baby Don't Cry (Keep... 2000-02-26   wk3      72
##  4 2 Pac   Baby Don't Cry (Keep... 2000-02-26   wk4      77
##  5 2 Pac   Baby Don't Cry (Keep... 2000-02-26   wk5      87
##  6 2 Pac   Baby Don't Cry (Keep... 2000-02-26   wk6      94
##  7 2 Pac   Baby Don't Cry (Keep... 2000-02-26   wk7      99
##  8 2Ge+her The Hardest Part Of ... 2000-09-02   wk1      91
##  9 2Ge+her The Hardest Part Of ... 2000-09-02   wk2      87
## 10 2Ge+her The Hardest Part Of ... 2000-09-02   wk3      92
## # … with 5,297 more rows
```
…
--

.right-column[

```r
billboard %>% 
  pivot_longer(
    cols = starts_with("wk"), names_to = "week", 
    names_prefix = "wk", names_ptypes = list(week = integer()),
    values_to = "rank", values_drop_na = TRUE
  )
```

```
## # A tibble: 5,307 x 5
##    artist  track                   date.entered  week  rank
##    <chr>   <chr>                   <date>       <int> <dbl>
##  1 2 Pac   Baby Don't Cry (Keep... 2000-02-26       1    87
##  2 2 Pac   Baby Don't Cry (Keep... 2000-02-26       2    82
##  3 2 Pac   Baby Don't Cry (Keep... 2000-02-26       3    72
##  4 2 Pac   Baby Don't Cry (Keep... 2000-02-26       4    77
##  5 2 Pac   Baby Don't Cry (Keep... 2000-02-26       5    87
##  6 2 Pac   Baby Don't Cry (Keep... 2000-02-26       6    94
##  7 2 Pac   Baby Don't Cry (Keep... 2000-02-26       7    99
##  8 2Ge+her The Hardest Part Of ... 2000-09-02       1    91
##  9 2Ge+her The Hardest Part Of ... 2000-09-02       2    87
## 10 2Ge+her The Hardest Part Of ... 2000-09-02       3    92
## # … with 5,297 more rows
```
…
--

.right-column[

```r
billboard %>% 
  pivot_longer(
    cols = starts_with("wk"), names_to = "week", 
    values_to = "rank", values_drop_na = TRUE
  ) %>% 
  mutate(week = parse_number(week))
```

```
## # A tibble: 5,307 x 5
##    artist  track                   date.entered  week  rank
##    <chr>   <chr>                   <date>       <dbl> <dbl>
##  1 2 Pac   Baby Don't Cry (Keep... 2000-02-26       1    87
##  2 2 Pac   Baby Don't Cry (Keep... 2000-02-26       2    82
##  3 2 Pac   Baby Don't Cry (Keep... 2000-02-26       3    72
##  4 2 Pac   Baby Don't Cry (Keep... 2000-02-26       4    77
##  5 2 Pac   Baby Don't Cry (Keep... 2000-02-26       5    87
##  6 2 Pac   Baby Don't Cry (Keep... 2000-02-26       6    94
##  7 2 Pac   Baby Don't Cry (Keep... 2000-02-26       7    99
##  8 2Ge+her The Hardest Part Of ... 2000-09-02       1    91
##  9 2Ge+her The Hardest Part Of ... 2000-09-02       2    87
## 10 2Ge+her The Hardest Part Of ... 2000-09-02       3    92
## # … with 5,297 more rows
```
…
For instance we can z-transform all the weekly rankings of all songs in one go.
]

--

.right-column[

```r
billboard %>% 
  mutate_at(vars(starts_with("wk")), scale)
```

```
## # A tibble: 317 x 79
##    artist track date.entered wk1[,1] wk2[,1] wk3[,1] wk4[,1] wk5[,1]
##    <chr>  <chr> <date>         <dbl>   <dbl>   <dbl>   <dbl>   <dbl>
##  1 2 Pac  Baby… 2000-02-26    0.479   0.595    0.335   0.772   1.29 
##  2 2Ge+h… The … 2000-09-02    0.752   0.870    1.30   NA      NA    
##  3 3 Doo… Kryp… 2000-04-08    0.0709 -0.0645   0.142   0.324   0.406
##  4 3 Doo… Loser 2000-10-21   -0.270   0.265    0.335   0.414   0.448
##  5 504 B… Wobb… 2000-04-15   -1.56   -2.04    -1.93   -1.92   -1.65 
##  6 98^0   Give… 2000-08-19   -1.97   -1.77    -1.50   -1.51   -1.28 
##  7 A*Tee… Danc… 2000-07-08    1.16    1.42     1.49    1.58    1.84 
##  8 Aaliy… I Do… 2000-01-29    0.275  -0.504   -0.677  -0.840  -0.771
##  9 Aaliy… Try … 2000-03-18   -1.43   -0.998   -1.30   -1.42   -1.49 
## 10 Adams… Open… 2000-08-26   -0.270   0.265    0.431   0.414   0.490
## # … with 307 more rows, and 71 more variables: wk6[,1] <dbl>,
## #   wk7[,1] <dbl>, wk8[,1] <dbl>, wk9[,1] <dbl>, wk10[,1] <dbl>,
## #   wk11[,1] <dbl>, wk12[,1] <dbl>, wk13[,1] <dbl>, wk14[,1] <dbl>,
## #   wk15[,1] <dbl>, wk16[,1] <dbl>, wk17[,1] <dbl>, wk18[,1] <dbl>,
## #   wk19[,1] <dbl>, wk20[,1] <dbl>, wk21[,1] <dbl>, wk22[,1] <dbl>,
## #   wk23[,1] <dbl>, wk24[,1] <dbl>, wk25[,1] <dbl>, wk26[,1] <dbl>,
## #   wk27[,1] <dbl>, wk28[,1] <dbl>, wk29[,1] <dbl>, wk30[,1] <dbl>,
## #   wk31[,1] <dbl>, wk32[,1] <dbl>, wk33[,1] <dbl>, wk34[,1] <dbl>,
## #   wk35[,1] <dbl>, wk36[,1] <dbl>, wk37[,1] <dbl>, wk38[,1] <dbl>,
…
### Summarising data

```r
billboard %>% 
  pivot_longer(starts_with("wk"), names_to = "week", values_to = "rank") %>% 
  mutate(week = parse_number(week)) %>% 
* group_by(artist, track) %>%
  summarise_at(vars(rank),
               list(Mean = mean, Max = min, Min = max),
               na.rm = TRUE)
```

```
## # A tibble: 317 x 5
## # Groups:   artist [228]
##    artist         track                    Mean   Max   Min
##    <chr>          <chr>                   <dbl> <dbl> <dbl>
##  1 2 Pac          Baby Don't Cry (Keep...  85.4    72    99
##  2 2Ge+her        The Hardest Part Of ...  90      87    92
##  3 3 Doors Down   Kryptonite               26.5     3    81
##  4 3 Doors Down   Loser                    67.1    55    76
##  5 504 Boyz       Wobble Wobble            56.2    17    96
##  6 98^0           Give Me Just One Nig...  37.6     2    94
##  7 A*Teens        Dancing Queen            97      95   100
##  8 Aaliyah        I Don't Wanna            52.0    35    86
##  9 Aaliyah        Try Again                16.7     1    59
## 10 Adams, Yolanda Open My Heart            67.8    57    89
## # … with 307 more rows
```
…
